…
The function `get_proportions_df()` will generate a data frame with four
columns:

  - `t`: the time (iteration)  
  - `prop_infected`: The proportion infected  
  - `r_effective`: The effective R value
  - `category`: The category

For example, to run the recursive function over 10 time points, we would
run the following.

``` r
d <- get_proportions_df(duration = 10)
d
#> # A tibble: 90 x 4
#>        t prop_infected r_effective category
#>    <dbl>         <dbl>       <dbl> <chr>   
#>  1     1          0           2.5  Ds      
#>  2     1          0           2.5  Da      
#>  3     1          0           2.5  Qcds    
#>  4     1          0           2.5  Qhds    
#>  5     1          0           2.5  Qcda    
#>  6     1          0           2.5  Qhda    
#>  7     1          0           2.5  Qq      
#>  8     1          0.8         2.5  Cs      
#>  9     1          0.2         2.5  Ca      
#> 10     2          0.08        2.46 Ds      
#> # … with 80 more rows
```
…
<img src="man/figures/README-eff-r-1.png" width="100%" />

We can also look at the \(R_{effective}\) over a variety of parameters
using the `get_r_effective_df()` function. This can take parameters as
either single number scalars or vectors of parameters to try. For
example, if we wanted to look at how \(R\) is affected by varying `t_ds`
between 1 and 14 and `rho_s` values of 0.05, 0.25, and 0.5, we would run
the following.

``` r
d <- get_r_effective_df(t_ds = 1:14, 
                        rho_s = c(0.05, 0.25, 0.5))
d
#> # A tibble: 42 x 18
#>    r_effective alpha     R kappa   eta    nu  t_ds  t_da t_qcs t_qca t_qhs t_qha
#>          <dbl> <dbl> <dbl> <dbl> <dbl> <dbl> <int> <dbl> <dbl> <dbl> <dbl> <dbl>
#>  1        2.41   0.2   2.5   0.5   0.5     4     1     3     3     3     3     3
#>  2        2.42   0.2   2.5   0.5   0.5     4     2     3     3     3     3     3
#>  3        2.43   0.2   2.5   0.5   0.5     4     3     3     3     3     3     3
#>  4        2.43   0.2   2.5   0.5   0.5     4     4     3     3     3     3     3
#>  5        2.43   0.2   2.5   0.5   0.5     4     5     3     3     3     3     3
#>  6        2.43   0.2   2.5   0.5   0.5     4     6     3     3     3     3     3
#>  7        2.44   0.2   2.5   0.5   0.5     4     7     3     3     3     3     3
#>  8        2.44   0.2   2.5   0.5   0.5     4     8     3     3     3     3     3
#>  9        2.44   0.2   2.5   0.5   0.5     4     9     3     3     3     3     3
#> 10        2.44   0.2   2.5   0.5   0.5     4    10     3     3     3     3     3
#> # … with 32 more rows, and 6 more variables: t_q <dbl>, omega_c <dbl>,
#> #   omega_h <dbl>, omega_q <dbl>, rho_s <dbl>, rho_a <dbl>
```
…
